Information Illumin8ors Final Project - Analysis
…
Number of Fisher Scoring iterations: 4

tidy_output <- tidy(model_sub)|>
  mutate(term = ifelse(term == "(Intercept)", "Asian", str_replace(term, "NEWRACE2", "")))

conf_intervals <- confint(model_sub)

Waiting for profiling to be done...

predicted_probs <- augment(model_sub, type.predict = "response")

print(predicted_probs)

# A tibble: 58,034 × 8
   drug_use NEWRACE2     .fitted .resid      .hat .sigma    .cooksd .std.resid
      <dbl> <chr>          <dbl>  <dbl>     <dbl>  <dbl>      <dbl>      <dbl>
 1        1 White          0.800  0.667 0.0000287   1.05 0.00000102      0.667
 2        1 White          0.800  0.667 0.0000287   1.05 0.00000102      0.667
 3        1 White          0.800  0.667 0.0000287   1.05 0.00000102      0.667
 4        1 White          0.800  0.667 0.0000287   1.05 0.00000102      0.667
 5        0 Hispanic       0.675 -1.50  0.000101    1.05 0.0000298      -1.50 
 6        1 Hispanic       0.675  0.887 0.000101    1.05 0.00000694      0.887
 7        1 Asian          0.604  1.00  0.000309    1.05 0.0000290       1.00 
 8        1 White          0.800  0.667 0.0000287   1.05 0.00000102      0.667
 9        0 Black/Afr Am   0.655 -1.46  0.000148    1.05 0.0000402      -1.46 
10        1 Hispanic       0.675  0.887 0.000101    1.05 0.00000694      0.887
# ℹ 58,024 more rows
…
